name: 'Order Management'
description: |-

  Endpoint to manage customers orders
endpoints:
  -
    httpMethods:
      - GET
    uri: api/v1/admin/orders
    metadata:
      groupName: 'Order Management'
      groupDescription: |-

        Endpoint to manage customers orders
      subgroup: ''
      subgroupDescription: ''
      title: 'Retrieve a paginated list of orders for the currently authenticated customer.'
      description: ''
      authenticated: true
      custom: []
    headers:
      Authorization: 'Bearer {ACCESS_TOKEN}'
      Content-Type: application/json
      Accept: application/json
    urlParameters: []
    cleanUrlParameters: []
    queryParameters: []
    cleanQueryParameters: []
    bodyParameters: []
    cleanBodyParameters: []
    fileParameters: []
    responses:
      -
        status: 200
        content: |-
          {
              "data": [
                  {
                      "id": 1,
                      "user": {
                          "id": 2,
                          "name": "John Doe",
                          "email": "johndoe@example.com"
                      },
                      "cart": [...],
                  },
                  ...
              ],
              "links": {
                  "first": "...",
                  "last": "...",
                  "prev": null,
                  "next": "..."
              },
              "meta": {
                  "current_page": 1,
                  "from": 1,
                  "last_page": 3,
                  "path": "...",
                  "per_page": 10,
                  "to": 10,
                  "total": 30
              }
          }
        headers: []
        description: ''
        custom: []
      -
        status: 500
        content: |-
          {
              "message": "Oops something went wrong"
          }
        headers: []
        description: ''
        custom: []
    responseFields: []
    auth:
      - headers
      - Authorization
      - 'Bearer 4dv6beDk51ah3ZEfc8g6PVa'
    controller: null
    method: null
    route: null
    custom: []
  -
    httpMethods:
      - GET
    uri: 'api/v1/admin/orders/{order_id}'
    metadata:
      groupName: 'Order Management'
      groupDescription: |-

        Endpoint to manage customers orders
      subgroup: ''
      subgroupDescription: ''
      title: 'Retrieve detailed information about a specific order for the currently authenticated user.'
      description: ''
      authenticated: true
      custom: []
    headers:
      Authorization: 'Bearer {ACCESS_TOKEN}'
      Content-Type: application/json
      Accept: application/json
    urlParameters:
      order_id:
        name: order_id
        description: 'The ID of the order.'
        required: true
        example: 99ee5dad-531c-4ba0-aee9-c0bda1d418ce
        type: string
        custom: []
    cleanUrlParameters:
      order_id: 99ee5dad-531c-4ba0-aee9-c0bda1d418ce
    queryParameters: []
    cleanQueryParameters: []
    bodyParameters: []
    cleanBodyParameters: []
    fileParameters: []
    responses:
      -
        status: 200
        content: |-
          {
              "data": {
                  "id": 1,
                  "user": {
                      "id": 2,
                      "name": "John Doe",
                      "email": "johndoe@example.com"
                  },
                  "cart": [...],
              }
          }
        headers: []
        description: ''
        custom: []
      -
        status: 404
        content: |-
          {
              "message": "Order not found"
          }
        headers: []
        description: ''
        custom: []
      -
        status: 500
        content: |-
          {
              "message": "Oops something went wrong"
          }
        headers: []
        description: ''
        custom: []
    responseFields: []
    auth:
      - headers
      - Authorization
      - 'Bearer bkD566h31dfvaV8eP4ZcEag'
    controller: null
    method: null
    route: null
    custom: []
  -
    httpMethods:
      - GET
    uri: api/v1/orders
    metadata:
      groupName: 'Order Management'
      groupDescription: |-

        Endpoint to manage customers orders
      subgroup: ''
      subgroupDescription: ''
      title: 'Retrieve a paginated list of orders for the currently authenticated customer.'
      description: ''
      authenticated: true
      custom: []
    headers:
      Authorization: 'Bearer {ACCESS_TOKEN}'
      Content-Type: application/json
      Accept: application/json
    urlParameters: []
    cleanUrlParameters: []
    queryParameters: []
    cleanQueryParameters: []
    bodyParameters: []
    cleanBodyParameters: []
    fileParameters: []
    responses:
      -
        status: 200
        content: |-
          {
              "data": [
                  {
                      "id": 1,
                      "user": {
                          "id": 2,
                          "name": "John Doe",
                          "email": "johndoe@example.com"
                      },
                      "cart": [...],
                  },
                  ...
              ],
              "links": {
                  "first": "...",
                  "last": "...",
                  "prev": null,
                  "next": "..."
              },
              "meta": {
                  "current_page": 1,
                  "from": 1,
                  "last_page": 3,
                  "path": "...",
                  "per_page": 10,
                  "to": 10,
                  "total": 30
              }
          }
        headers: []
        description: ''
        custom: []
      -
        status: 500
        content: |-
          {
              "message": "Oops something went wrong"
          }
        headers: []
        description: ''
        custom: []
    responseFields: []
    auth:
      - headers
      - Authorization
      - 'Bearer ZbhDad65Vgv68eEcP3f1ka4'
    controller: null
    method: null
    route: null
    custom: []
  -
    httpMethods:
      - GET
    uri: 'api/v1/orders/{order_id}'
    metadata:
      groupName: 'Order Management'
      groupDescription: |-

        Endpoint to manage customers orders
      subgroup: ''
      subgroupDescription: ''
      title: 'Retrieve detailed information about a specific order for the currently authenticated user.'
      description: ''
      authenticated: true
      custom: []
    headers:
      Authorization: 'Bearer {ACCESS_TOKEN}'
      Content-Type: application/json
      Accept: application/json
    urlParameters:
      order_id:
        name: order_id
        description: 'The ID of the order.'
        required: true
        example: 99ee5dad-531c-4ba0-aee9-c0bda1d418ce
        type: string
        custom: []
    cleanUrlParameters:
      order_id: 99ee5dad-531c-4ba0-aee9-c0bda1d418ce
    queryParameters: []
    cleanQueryParameters: []
    bodyParameters: []
    cleanBodyParameters: []
    fileParameters: []
    responses:
      -
        status: 200
        content: |-
          {
              "data": {
                  "id": 1,
                  "user": {
                      "id": 2,
                      "name": "John Doe",
                      "email": "johndoe@example.com"
                  },
                  "cart": [...],
              }
          }
        headers: []
        description: ''
        custom: []
      -
        status: 404
        content: |-
          {
              "message": "Order not found"
          }
        headers: []
        description: ''
        custom: []
      -
        status: 500
        content: |-
          {
              "message": "Oops something went wrong"
          }
        headers: []
        description: ''
        custom: []
    responseFields: []
    auth:
      - headers
      - Authorization
      - 'Bearer 5P6g6h3Zd4aavVcDb1efE8k'
    controller: null
    method: null
    route: null
    custom: []
  -
    httpMethods:
      - POST
    uri: api/v1/checkout
    metadata:
      groupName: 'Order Management'
      groupDescription: |-

        Endpoint to manage customers orders
      subgroup: ''
      subgroupDescription: ''
      title: 'Process the checkout for placing an order.'
      description: ''
      authenticated: true
      custom: []
    headers:
      Authorization: 'Bearer {ACCESS_TOKEN}'
      Content-Type: application/json
      Accept: application/json
    urlParameters: []
    cleanUrlParameters: []
    queryParameters: []
    cleanQueryParameters: []
    bodyParameters:
      success_url:
        name: success_url
        description: 'The URL to redirect to on successful payment.'
        required: true
        example: 'http://hoppe.com/id-ullam-velit-consectetur.html'
        type: string
        custom: []
      cancel_url:
        name: cancel_url
        description: 'The URL to redirect to on payment cancellation.'
        required: true
        example: 'https://www.schamberger.com/et-laboriosam-doloremque-modi-ut'
        type: string
        custom: []
      cart:
        name: cart
        description: 'The array of products in the cart.'
        required: true
        example:
          - iste
        type: 'string[]'
        custom: []
      shipping:
        name: shipping
        description: ''
        required: false
        example: null
        type: object
        custom: []
      shipping.price:
        name: shipping.price
        description: 'The shipping price if shipping is involved.'
        required: true
        example: 10509010.104387
        type: number
        custom: []
      shipping.billing_address_id:
        name: shipping.billing_address_id
        description: 'shipping address_id if shipping is involved.'
        required: false
        example: sit
        type: string
        custom: []
      'cart[].product_id':
        name: 'cart[].product_id'
        description: 'The ID of the product in the cart.'
        required: true
        example: 6
        type: integer
        custom: []
      'cart[].quantity':
        name: 'cart[].quantity'
        description: 'The quantity of the product in the cart.'
        required: true
        example: 15
        type: integer
        custom: []
    cleanBodyParameters:
      success_url: 'http://hoppe.com/id-ullam-velit-consectetur.html'
      cancel_url: 'https://www.schamberger.com/et-laboriosam-doloremque-modi-ut'
      cart:
        - iste
      shipping:
        price: 10509010.104387
        billing_address_id: sit
    fileParameters: []
    responses:
      -
        status: 200
        content: |-
          {
              "url": "https://checkout.stripe.com/session/...",
              "message": "Checkout initiated successfully"
          }
        headers: []
        description: ''
        custom: []
    responseFields: []
    auth:
      - headers
      - Authorization
      - 'Bearer 5DVbfde1c6a6hEgZkv84aP3'
    controller: null
    method: null
    route: null
    custom: []
