## Autogenerated by Scribe. DO NOT MODIFY.

name: 'Product Management'
description: |-

  Endpoints to manage products
endpoints:
  -
    httpMethods:
      - POST
    uri: api/v1/admin/products
    metadata:
      groupName: 'Product Management'
      groupDescription: |-

        Endpoints to manage products
      subgroup: ''
      subgroupDescription: ''
      title: 'Store a new product with related information and files.'
      description: ''
      authenticated: false
      custom: []
    headers:
      Content-Type: multipart/form-data
      Accept: application/json
    urlParameters: []
    cleanUrlParameters: []
    queryParameters: []
    cleanQueryParameters: []
    bodyParameters:
      name:
        name: name
        description: 'The name of the product.'
        required: true
        example: fugit
        type: string
        custom: []
      images:
        name: images
        description: 'Must be an image. Must not be greater than 2048 kilobytes.'
        required: false
        example:
          - null
        type: 'file[]'
        custom: []
      price:
        name: price
        description: 'The price of the product.'
        required: true
        example: 788.7968
        type: number
        custom: []
      print_price:
        name: print_price
        description: 'The printing price of the product.'
        required: true
        example: 0.984698
        type: number
        custom: []
      description:
        name: description
        description: 'The description of the product.'
        required: true
        example: 'Reiciendis qui quia ipsa aut velit dolorem.'
        type: string
        custom: []
      categories:
        name: categories
        description: 'The array of category IDs associated with the product.'
        required: true
        example:
          - accusantium
        type: 'string[]'
        custom: []
      tags:
        name: tags
        description: 'The array of tag IDs associated with the product.'
        required: true
        example:
          - hic
        type: 'string[]'
        custom: []
      author:
        name: author
        description: "The ID of the product's author."
        required: true
        example: 1
        type: integer
        custom: []
      product_file:
        name: product_file
        description: 'The main product file.'
        required: false
        example: null
        type: file
        custom: []
      preview:
        name: preview
        description: 'The preview file of the product.'
        required: false
        example: null
        type: file
        custom: []
      weight:
        name: weight
        description: 'The weight of the product.'
        required: true
        example: 24012.0
        type: number
        custom: []
      'images[]':
        name: 'images[]'
        description: 'An array of additional images for the product (if applicable).'
        required: false
        example: null
        type: file
        custom: []
    cleanBodyParameters:
      name: fugit
      price: 788.7968
      print_price: 0.984698
      description: 'Reiciendis qui quia ipsa aut velit dolorem.'
      categories:
        - accusantium
      tags:
        - hic
      author: 1
      weight: 24012.0
    fileParameters:
      images:
        - null
      product_file: null
      preview: null
      'images[]': null
    responses:
      -
        status: 200
        content: |-
          {
              "data": {
                  "id": 1,
                  "name": "Product A",
                  "author_id": 2,
                  "price": 19.99,
                  "description": "Description of Product A",
                  "weight": 0.5,
                  "print_price": 5.99,
                  "preview": "book_previews/product_a_preview.jpg",
                  "product_file": "books/product_a_file.pdf",
                  "categories": [...],
                  "tags": [...],
                  "images": [...]
              }
          }
        headers: []
        description: ''
        custom: []
      -
        status: 500
        content: |-
          {
              "error": "Error occurred. Try again"
          }
        headers: []
        description: ''
        custom: []
    responseFields: []
    auth: []
    controller: null
    method: null
    route: null
    custom: []
  -
    httpMethods:
      - PUT
      - PATCH
    uri: 'api/v1/admin/products/{id}'
    metadata:
      groupName: 'Product Management'
      groupDescription: |-

        Endpoints to manage products
      subgroup: ''
      subgroupDescription: ''
      title: 'Update the specified resource in storage.'
      description: ''
      authenticated: true
      custom: []
    headers:
      Authorization: 'Bearer {ACCESS_TOKEN}'
      Content-Type: multipart/form-data
      Accept: application/json
    urlParameters:
      id:
        name: id
        description: 'The ID of the product.'
        required: true
        example: 99d35264-8076-49a5-a8d5-8cd88f85a773
        type: string
        custom: []
    cleanUrlParameters:
      id: 99d35264-8076-49a5-a8d5-8cd88f85a773
    queryParameters: []
    cleanQueryParameters: []
    bodyParameters:
      name:
        name: name
        description: ''
        required: true
        example: culpa
        type: string
        custom: []
      images:
        name: images
        description: 'Must be an image. Must not be greater than 2048 kilobytes.'
        required: false
        example:
          - null
        type: 'file[]'
        custom: []
      price:
        name: price
        description: ''
        required: true
        example: velit
        type: string
        custom: []
      print_price:
        name: print_price
        description: ''
        required: true
        example: 119735.0
        type: number
        custom: []
      description:
        name: description
        description: ''
        required: true
        example: vitae
        type: string
        custom: []
      categories:
        name: categories
        description: ''
        required: false
        example: null
        type: 'string[]'
        custom: []
      tags:
        name: tags
        description: ''
        required: false
        example: null
        type: 'string[]'
        custom: []
      author:
        name: author
        description: ''
        required: true
        example: voluptatum
        type: string
        custom: []
      product_file:
        name: product_file
        description: 'Must be a file.'
        required: true
        example: null
        type: file
        custom: []
      preview:
        name: preview
        description: 'Must be a file.'
        required: true
        example: null
        type: file
        custom: []
      weight:
        name: weight
        description: ''
        required: true
        example: 0.40105821
        type: number
        custom: []
    cleanBodyParameters:
      name: culpa
      price: velit
      print_price: 119735.0
      description: vitae
      author: voluptatum
      weight: 0.40105821
    fileParameters:
      images:
        - null
      product_file: null
      preview: null
    responses:
      -
        status: 200
        content: '{"data":{"id":null,"name":null,"weight":null,"price":"0.00","printPrice":"0.00","description":null,"author":null,"categories":[],"tags":[],"images":[],"reviews":[],"preview":"http:\/\/dunia.healthyishng.com\/storage"}}'
        headers: []
        description: ''
        custom: []
    responseFields: []
    auth:
      - headers
      - Authorization
      - 'Bearer eE3b856PhDZfacda4gV61kv'
    controller: null
    method: null
    route: null
    custom: []
  -
    httpMethods:
      - POST
    uri: 'api/v1/admin/products/{product_id}/images'
    metadata:
      groupName: 'Product Management'
      groupDescription: |-

        Endpoints to manage products
      subgroup: ''
      subgroupDescription: ''
      title: 'Add images to a product'
      description: ''
      authenticated: true
      custom: []
    headers:
      Authorization: 'Bearer {ACCESS_TOKEN}'
      Content-Type: multipart/form-data
      Accept: application/json
    urlParameters:
      product_id:
        name: product_id
        description: 'The ID of the product.'
        required: true
        example: 99d35264-8076-49a5-a8d5-8cd88f85a773
        type: string
        custom: []
    cleanUrlParameters:
      product_id: 99d35264-8076-49a5-a8d5-8cd88f85a773
    queryParameters: []
    cleanQueryParameters: []
    bodyParameters:
      images:
        name: images
        description: 'Must be an image. Must not be greater than 2048 kilobytes.'
        required: false
        example:
          - null
        type: 'file[]'
        custom: []
    cleanBodyParameters: []
    fileParameters:
      images:
        - null
    responses: []
    responseFields: []
    auth:
      - headers
      - Authorization
      - 'Bearer 5fah3Zd64PgcDEV68kavb1e'
    controller: null
    method: null
    route: null
    custom: []
  -
    httpMethods:
      - DELETE
    uri: 'api/v1/admin/products/{product_id}/images/{productImage_id}'
    metadata:
      groupName: 'Product Management'
      groupDescription: |-

        Endpoints to manage products
      subgroup: ''
      subgroupDescription: ''
      title: 'Delete image from product'
      description: ''
      authenticated: true
      custom: []
    headers:
      Authorization: 'Bearer {ACCESS_TOKEN}'
      Content-Type: application/json
      Accept: application/json
    urlParameters:
      product_id:
        name: product_id
        description: 'The ID of the product.'
        required: true
        example: 99d35264-8076-49a5-a8d5-8cd88f85a773
        type: string
        custom: []
      productImage_id:
        name: productImage_id
        description: 'The ID of the productImage.'
        required: true
        example: 99d35a23-2f11-406d-afde-f05b8efb9968
        type: string
        custom: []
    cleanUrlParameters:
      product_id: 99d35264-8076-49a5-a8d5-8cd88f85a773
      productImage_id: 99d35a23-2f11-406d-afde-f05b8efb9968
    queryParameters: []
    cleanQueryParameters: []
    bodyParameters: []
    cleanBodyParameters: []
    fileParameters: []
    responses: []
    responseFields: []
    auth:
      - headers
      - Authorization
      - 'Bearer Pbk5hc8e6Z13EdavgV46aDf'
    controller: null
    method: null
    route: null
    custom: []
  -
    httpMethods:
      - GET
    uri: api/v1/products
    metadata:
      groupName: 'Product Management'
      groupDescription: |-

        Endpoints to manage products
      subgroup: ''
      subgroupDescription: ''
      title: 'Retrieve a paginated list of products with optional filters.'
      description: ''
      authenticated: false
      custom: []
    headers:
      Content-Type: application/json
      Accept: application/json
    urlParameters: []
    cleanUrlParameters: []
    queryParameters:
      name:
        name: name
        description: 'Search for products by name (partial match).'
        required: false
        example: aspernatur
        type: string
        custom: []
      author:
        name: author
        description: "Search for products by author's name."
        required: false
        example: laborum
        type: string
        custom: []
      category:
        name: category
        description: 'Search for products by category name.'
        required: false
        example: ut
        type: string
        custom: []
    cleanQueryParameters:
      name: aspernatur
      author: laborum
      category: ut
    bodyParameters:
      name:
        name: name
        description: ''
        required: false
        example: quos
        type: string
        custom: []
      author:
        name: author
        description: ''
        required: false
        example: quas
        type: string
        custom: []
      category:
        name: category
        description: ''
        required: false
        example: harum
        type: string
        custom: []
    cleanBodyParameters:
      name: quos
      author: quas
      category: harum
    fileParameters: []
    responses:
      -
        status: 200
        content: |-
          {
              "data": [
                  {
                      "id": 1,
                      "name": "Product A",
                      "author_id": 1,
                      "price": 19.99,
                      "description": "Description of Product A",
                      "category": {
                          "id": 2,
                          "name": "Category X"
                      },
                      "author": {
                          "id": 1,
                          "name": "Author Y"
                      }
                  },
                  {
                      "id": 2,
                      "name": "Product B",
                      "author_id": 2,
                      "price": 29.99,
                      "description": "Description of Product B",
                      "category": {
                          "id": 3,
                          "name": "Category Z"
                      },
                      "author": {
                          "id": 2,
                          "name": "Author Z"
                      }
                  }
              ],
              "links": {
                  "first": "https://api.example.com/products?page=1",
                  "last": "https://api.example.com/products?page=3",
                  "prev": null,
                  "next": "https://api.example.com/products?page=2"
              },
              "meta": {
                  "current_page": 1,
                  "from": 1,
                  "last_page": 3,
                  "path": "https://api.example.com/products",
                  "per_page": 10,
                  "to": 10,
                  "total": 25
              }
          }
        headers: []
        description: ''
        custom: []
    responseFields: []
    auth: []
    controller: null
    method: null
    route: null
    custom: []
  -
    httpMethods:
      - GET
    uri: 'api/v1/products/{id}'
    metadata:
      groupName: 'Product Management'
      groupDescription: |-

        Endpoints to manage products
      subgroup: ''
      subgroupDescription: ''
      title: 'Display a specific product by ID.'
      description: ''
      authenticated: false
      custom: []
    headers:
      Content-Type: application/json
      Accept: application/json
    urlParameters:
      id:
        name: id
        description: 'Product ID'
        required: true
        example: voluptas
        type: string
        custom: []
    cleanUrlParameters:
      id: voluptas
    queryParameters: []
    cleanQueryParameters: []
    bodyParameters: []
    cleanBodyParameters: []
    fileParameters: []
    responses:
      -
        status: 200
        content: '{"data":{"id":null,"name":null,"weight":null,"price":"0.00","printPrice":"0.00","description":null,"author":null,"categories":[],"tags":[],"images":[],"reviews":[],"preview":"http:\/\/dunia.healthyishng.com\/storage"}}'
        headers: []
        description: ''
        custom: []
    responseFields: []
    auth: []
    controller: null
    method: null
    route: null
    custom: []
