## Autogenerated by Scribe. DO NOT MODIFY.

name: 'Order Management'
description: |-

  Endpoint to manage customers orders
endpoints:
  -
    httpMethods:
      - GET
    uri: api/v1/order
    metadata:
      groupName: 'Order Management'
      groupDescription: |-

        Endpoint to manage customers orders
      subgroup: ''
      subgroupDescription: ''
      title: 'Retrieve a paginated list of orders for the currently authenticated customer.'
      description: ''
      authenticated: true
      custom: []
    headers:
      Authorization: 'Bearer {ACCESS_TOKEN}'
      Content-Type: application/json
      Accept: application/json
    urlParameters: []
    cleanUrlParameters: []
    queryParameters: []
    cleanQueryParameters: []
    bodyParameters: []
    cleanBodyParameters: []
    fileParameters: []
    responses:
      -
        status: 200
        content: |-
          {
              "data": [
                  {
                      "id": 1,
                      "user": {
                          "id": 2,
                          "name": "John Doe",
                          "email": "johndoe@example.com"
                      },
                      "cart": [...],
                  },
                  ...
              ],
              "links": {
                  "first": "...",
                  "last": "...",
                  "prev": null,
                  "next": "..."
              },
              "meta": {
                  "current_page": 1,
                  "from": 1,
                  "last_page": 3,
                  "path": "...",
                  "per_page": 10,
                  "to": 10,
                  "total": 30
              }
          }
        headers: []
        description: ''
        custom: []
      -
        status: 500
        content: |-
          {
              "message": "Oops something went wrong"
          }
        headers: []
        description: ''
        custom: []
    responseFields: []
    auth:
      - headers
      - Authorization
      - 'Bearer hePa66f8vaEk3dcZbVDg154'
    controller: null
    method: null
    route: null
    custom: []
  -
    httpMethods:
      - GET
    uri: 'api/v1/order/{order_id}'
    metadata:
      groupName: 'Order Management'
      groupDescription: |-

        Endpoint to manage customers orders
      subgroup: ''
      subgroupDescription: ''
      title: 'Retrieve detailed information about a specific order for the currently authenticated user.'
      description: ''
      authenticated: true
      custom: []
    headers:
      Authorization: 'Bearer {ACCESS_TOKEN}'
      Content-Type: application/json
      Accept: application/json
    urlParameters:
      order_id:
        name: order_id
        description: 'The ID of the order.'
        required: true
        example: 99ee5dad-531c-4ba0-aee9-c0bda1d418ce
        type: string
        custom: []
    cleanUrlParameters:
      order_id: 99ee5dad-531c-4ba0-aee9-c0bda1d418ce
    queryParameters: []
    cleanQueryParameters: []
    bodyParameters: []
    cleanBodyParameters: []
    fileParameters: []
    responses:
      -
        status: 200
        content: |-
          {
              "data": {
                  "id": 1,
                  "user": {
                      "id": 2,
                      "name": "John Doe",
                      "email": "johndoe@example.com"
                  },
                  "cart": [...],
              }
          }
        headers: []
        description: ''
        custom: []
      -
        status: 404
        content: |-
          {
              "message": "Order not found"
          }
        headers: []
        description: ''
        custom: []
      -
        status: 500
        content: |-
          {
              "message": "Oops something went wrong"
          }
        headers: []
        description: ''
        custom: []
    responseFields: []
    auth:
      - headers
      - Authorization
      - 'Bearer cE4vdfeZPk1ga56aDhV8b36'
    controller: null
    method: null
    route: null
    custom: []
  -
    httpMethods:
      - POST
    uri: api/v1/checkout
    metadata:
      groupName: 'Order Management'
      groupDescription: |-

        Endpoint to manage customers orders
      subgroup: ''
      subgroupDescription: ''
      title: 'Process the checkout for placing an order.'
      description: ''
      authenticated: true
      custom: []
    headers:
      Authorization: 'Bearer {ACCESS_TOKEN}'
      Content-Type: application/json
      Accept: application/json
    urlParameters: []
    cleanUrlParameters: []
    queryParameters: []
    cleanQueryParameters: []
    bodyParameters:
      success_url:
        name: success_url
        description: 'The URL to redirect to on successful payment.'
        required: true
        example: 'http://marks.com/modi-aliquid-rerum-nihil-minus-dignissimos-aut-rerum-in'
        type: string
        custom: []
      cancel_url:
        name: cancel_url
        description: 'The URL to redirect to on payment cancellation.'
        required: true
        example: 'http://graham.net/a-rerum-dolores-quia'
        type: string
        custom: []
      cart:
        name: cart
        description: 'The array of products in the cart.'
        required: true
        example:
          - quisquam
        type: 'string[]'
        custom: []
      shipping:
        name: shipping
        description: ''
        required: false
        example: null
        type: object
        custom: []
      shipping.price:
        name: shipping.price
        description: 'The shipping price if shipping is involved.'
        required: true
        example: 78.4490701
        type: number
        custom: []
      shipping.billing_address_id:
        name: shipping.billing_address_id
        description: 'shipping address_id if shipping is involved.'
        required: false
        example: beatae
        type: string
        custom: []
      'cart[].product_id':
        name: 'cart[].product_id'
        description: 'The ID of the product in the cart.'
        required: true
        example: 10
        type: integer
        custom: []
      'cart[].quantity':
        name: 'cart[].quantity'
        description: 'The quantity of the product in the cart.'
        required: true
        example: 14
        type: integer
        custom: []
    cleanBodyParameters:
      success_url: 'http://marks.com/modi-aliquid-rerum-nihil-minus-dignissimos-aut-rerum-in'
      cancel_url: 'http://graham.net/a-rerum-dolores-quia'
      cart:
        - quisquam
      shipping:
        price: 78.4490701
        billing_address_id: beatae
    fileParameters: []
    responses:
      -
        status: 200
        content: |-
          {
              "url": "https://checkout.stripe.com/session/...",
              "message": "Checkout initiated successfully"
          }
        headers: []
        description: ''
        custom: []
    responseFields: []
    auth:
      - headers
      - Authorization
      - 'Bearer a361gve56aVE4hbdDZP8cfk'
    controller: null
    method: null
    route: null
    custom: []
